258, 691, 626, 92
802, 96, 538, 67
193, 428, 281, 351
87, 943, 249, 262
292, 994, 980, 68
542, 234, 996, 153
601, 53, 453, 808
305, 621, 296, 789
995, 549, 122, 651
17, 391, 226, 963
352, 988, 708, 359
179, 633, 492, 353
84, 320, 29, 214
393, 566, 107, 861
147, 664, 574, 935
149, 102, 207, 279
590, 523, 739, 642
353, 314, 351, 489
605, 181, 752, 429
937, 253, 617, 146
294, 676, 665, 316
591, 816, 564, 394
180, 423, 656, 567
321, 292, 360, 735
924, 511, 293, 88
690, 809, 165, 706
514, 328, 91, 318
394, 454, 801, 968
903, 902, 311, 380
710, 150, 761, 141
468, 258, 475, 887
156, 989, 254, 946
829, 535, 975, 148
334, 806, 43, 185
613, 82, 316, 952
692, 86, 37, 431
913, 629, 986, 871
428, 277, 526, 694
129, 864, 646, 913
445, 427, 376, 273
423, 450, 178, 905
890, 623, 544, 471
103, 474, 85, 799
429, 412, 732, 310
963, 816, 539, 606
946, 511, 376, 510
26, 655, 514, 604
246, 179, 601, 402
104, 631, 562, 893
578, 434, 889, 267
11, 879, 137, 726
317, 29, 890, 262
406, 455, 547, 961
729, 960, 463, 994
368, 674, 200, 121
103, 776, 626, 330
603, 363, 785, 816
969, 565, 369, 954
578, 19, 170, 327
870, 801, 927, 70
176, 172, 918, 807
154, 551, 462, 191
28, 508, 930, 755
702, 750, 121, 685
49, 723, 835, 111
781, 227, 298, 341
0, 12, 282, 364
118, 515, 878, 31
642, 149, 453, 621
186, 866, 262, 100
774, 257, 525, 1000
713, 957, 398, 52
611, 784, 972, 687
440, 430, 772, 745
184, 615, 119, 983
210, 57, 158, 767
279, 569, 464, 786
119, 791, 681, 66
781, 452, 246, 259
540, 146, 295, 431
171, 235, 781, 249
20, 119, 878, 793
660, 217, 22, 576
542, 777, 379, 270
535, 502, 927, 902
967, 447, 230, 859
381, 365, 802, 229
918, 700, 665, 159
29, 301, 110, 177
316, 416, 663, 678
61, 384, 393, 887
517, 557, 778, 83
487, 521, 290, 163
926, 229, 802, 946
75, 614, 73, 978
543, 893, 478, 774
647, 754, 907, 565
837, 570, 643, 646
462, 363, 774, 236
176, 269, 630, 311
25, 318, 846, 781
804, 798, 609, 867
7, 389, 510, 505
126, 645, 205, 95
525, 585, 378, 133
311, 691, 13, 426
979, 687, 874, 758
510, 887, 733, 352
868, 491, 461, 311
233, 37, 390, 983
167, 444, 788, 452
683, 345, 144, 445
801, 196, 100, 649
887, 914, 986, 252
603, 78, 726, 896
573, 623, 791, 23
739, 21, 840, 326
12, 387, 360, 660
231, 147, 537, 539
388, 863, 549, 190
689, 731, 679, 456
660, 543, 887, 918
970, 301, 477, 223
508, 379, 827, 626
448, 52, 595, 64
582, 652, 820, 929
426, 330, 124, 422
646, 814, 217, 98
724, 72, 138, 364
803, 476, 344, 600
194, 259, 240, 738
504, 549, 242, 788
809, 591, 274, 385
46, 46, 191, 177
765, 176, 509, 726
138, 806, 724, 24
723, 421, 713, 265
308, 137, 158, 246
27, 391, 278, 36
122, 11, 418, 188
866, 846, 628, 536
611, 372, 380, 937
684, 440, 392, 822
453, 894, 197, 586
273, 41, 19, 399
620, 406, 121, 470
399, 170, 244, 157
839, 543, 522, 157
296, 21, 516, 46
184, 465, 609, 911
929, 511, 577, 456
638, 795, 403, 418
866, 501, 80, 239
162, 12, 533, 678
978, 8, 812, 574
40, 134, 554, 272
72, 8, 243, 13
227, 993, 888, 341
470, 551, 644, 789
358, 544, 733, 161
362, 969, 82, 803
245, 454, 342, 938
549, 864, 835, 326
711, 334, 52, 866
588, 69, 290, 328
251, 334, 288, 866
907, 250, 335, 388
759, 728, 195, 932
121, 80, 908, 538
143, 808, 730, 930
194, 648, 847, 259
585, 524, 41, 757
728, 542, 447, 58
83, 752, 552, 770
743, 538, 73, 32
628, 87, 393, 746
664, 303, 270, 736
239, 104, 605, 928
640, 723, 171, 130
819, 126, 466, 49
952, 916, 649, 781
886, 813, 856, 830
464, 354, 713, 908
319, 599, 963, 791
362, 124, 709, 574
797, 283, 703, 729
32, 824, 56, 494
833, 118, 392, 170
542, 402, 683, 264
814, 138, 304, 155
972, 382, 218, 565
901, 473, 497, 919
313, 820, 956, 396
482, 617, 530, 922
428, 819, 749, 364
344, 212, 963, 247
73, 484, 873, 812
329, 447, 353, 371
5, 825, 840, 722
152, 147, 876, 457
578, 263, 179, 451
508, 445, 364, 77
85, 589, 796, 157
623, 6, 114, 180
685, 936, 152, 351
164, 885, 420, 946
672, 366, 652, 790
418, 214, 546, 992
723, 135, 265, 867
673, 529, 305, 728
558, 855, 168, 489
215, 884, 30, 590
642, 975, 220, 100
350, 185, 963, 484
556, 624, 963, 511
573, 834, 895, 418
757, 982, 511, 237
941, 761, 335, 840
128, 504, 40, 842
959, 238, 703, 387
284, 478, 581, 116
731, 417, 849, 930
962, 677, 741, 377
585, 357, 252, 941
472, 791, 614, 336
274, 680, 593, 140
795, 897, 82, 800
833, 727, 776, 654
169, 690, 291, 477
433, 762, 24, 15
516, 653, 699, 385
886, 249, 904, 198
201, 668, 870, 311
193, 130, 164, 243
598, 8, 495, 455
923, 149, 562, 62
180, 247, 112, 841
114, 881, 48, 906
645, 549, 846, 934
304, 88, 669, 343
993, 20, 4, 71
511, 912, 365, 829
473, 132, 182, 273
591, 750, 392, 147
800, 651, 51, 801
171, 947, 429, 319
652, 923, 428, 701
469, 418, 362, 304
549, 118, 532, 311
13, 518, 237, 432
915, 190, 241, 877
563, 189, 318, 419
331, 690, 201, 507
250, 414, 121, 153
402, 495, 814, 586
213, 366, 371, 437
511, 510, 541, 734
150, 217, 395, 507
183, 134, 822, 352
750, 915, 815, 774
631, 846, 324, 491
746, 585, 379, 840
19, 513, 200, 715
449, 153, 153, 70
971, 807, 965, 253
161, 11, 851, 674
542, 688, 415, 155
126, 435, 995, 657
747, 787, 995, 412
806, 715, 23, 414
321, 799, 401, 260
216, 451, 636, 596
654, 475, 239, 691
780, 130, 5, 783
562, 688, 841, 28
87, 85, 667, 87
620, 169, 620, 48
46, 380, 30, 432
88, 971, 474, 908
856, 1000, 70, 394
791, 101, 627, 645
65, 436, 330, 104
873, 175, 986, 304
216, 967, 477, 190
302, 568, 942, 341
81, 205, 502, 745
88, 407, 633, 800
224, 385, 764, 357
724, 413, 969, 238
547, 911, 380, 507
834, 890, 209, 483
850, 758, 339, 781
167, 645, 491, 478
860, 617, 900, 432
594, 245, 301, 241
979, 476, 556, 651
852, 641, 366, 500
90, 164, 97, 747
297, 668, 622, 92
588, 380, 244, 292
91, 725, 205, 755
976, 427, 461, 579
233, 149, 872, 254
768, 667, 205, 891
128, 53, 301, 133
233, 160, 679, 66
340, 663, 472, 764
48, 879, 344, 829
240, 270, 657, 195
236, 647, 830, 233
105, 601, 224, 615
702, 99, 486, 643
145, 365, 68, 425
977, 106, 707, 232
218, 550, 913, 614
646, 427, 806, 339
992, 816, 836, 654
343, 354, 136, 440
271, 393, 474, 43
975, 298, 577, 852
889, 747, 595, 514
407, 418, 263, 116
892, 121, 119, 224
507, 713, 151, 706
618, 899, 684, 628
720, 456, 192, 279
258, 625, 737, 881
455, 5, 98, 811
815, 124, 533, 415
556, 128, 430, 746
321, 121, 616, 158
906, 426, 59, 594
831, 571, 314, 843
617, 526, 886, 842
638, 284, 245, 983
2, 991, 586, 184
476, 614, 144, 725
865, 252, 645, 272
621, 981, 67, 852
255, 337, 544, 345
372, 865, 227, 744
884, 25, 65, 378
603, 813, 722, 127
612, 875, 100, 649
11, 947, 927, 826
373, 333, 418, 760
237, 424, 667, 832
986, 335, 620, 35
636, 595, 318, 614
477, 923, 325, 660
628, 185, 997, 87
830, 130, 455, 385
270, 108, 134, 3
369, 431, 471, 799
939, 257, 771, 279
917, 218, 620, 137
261, 211, 782, 934
637, 844, 582, 872
689, 777, 68, 459
214, 539, 864, 172
957, 64, 598, 500
275, 6, 861, 93
897, 169, 209, 589
870, 441, 322, 97
193, 927, 167, 714
82, 201, 59, 568
154, 721, 290, 894
742, 358, 952, 153
746, 701, 585, 539
789, 552, 554, 862
211, 403, 246, 216
890, 336, 891, 801
679, 190, 612, 970
972, 19, 333, 148
637, 136, 291, 63
737, 149, 938, 270
977, 273, 488, 763
264, 385, 558, 164
677, 597, 779, 400
310, 66, 620, 529
508, 604, 677, 952
697, 561, 711, 693
145, 334, 446, 963
234, 969, 416, 323
191, 513, 884, 365
327, 25, 282, 387
707, 351, 787, 621
153, 999, 653, 39
599, 768, 56, 167
370, 665, 385, 185
700, 845, 991, 930
493, 383, 846, 718
626, 918, 904, 815
598, 503, 458, 557
324, 43, 575, 63
576, 69, 424, 98
426, 25, 670, 270
194, 192, 533, 318
629, 491, 649, 26
36, 993, 526, 549
104, 241, 332, 379
993, 427, 971, 366
50, 138, 290, 530
857, 497, 709, 431
883, 379, 837, 163
713, 297, 32, 258
129, 55, 271, 828
11, 739, 546, 823
913, 666, 939, 986
955, 159, 70, 914
372, 487, 525, 151
452, 745, 458, 325
222, 283, 83, 630
10, 513, 893, 134
758, 608, 749, 879
896, 231, 32, 253
161, 782, 108, 415
581, 682, 632, 186
690, 59, 582, 376
424, 468, 613, 482
384, 269, 609, 174
432, 868, 351, 430
910, 584, 883, 32
761, 113, 759, 222
488, 211, 307, 481
990, 994, 781, 67
911, 735, 100, 952
397, 460, 560, 150
144, 600, 945, 83
256, 77, 993, 859
752, 457, 716, 819
87, 0, 78, 680
478, 658, 657, 930
55, 781, 978, 359
406, 953, 351, 279
312, 163, 370, 931
960, 962, 468, 316
685, 246, 323, 107
430, 353, 988, 860
412, 813, 670, 719
898, 373, 498, 532
745, 135, 610, 776
733, 430, 298, 85
783, 526, 610, 685
355, 824, 854, 630
528, 594, 197, 415
420, 356, 747, 925
437, 138, 111, 115
641, 762, 186, 421
434, 147, 630, 612
945, 531, 153, 583
531, 949, 293, 678
186, 155, 947, 727
509, 713, 844, 78
881, 838, 644, 375
499, 296, 630, 552
852, 584, 300, 875
245, 900, 719, 908
537, 828, 397, 408
899, 48, 701, 481
960, 219, 107, 264
492, 21, 871, 354
65, 264, 19, 997
976, 884, 735, 805
901, 314, 716, 41
623, 18, 566, 978
348, 99, 399, 558
243, 889, 513, 189
478, 422, 291, 2
89, 273, 326, 970
611, 960, 967, 207
148, 742, 786, 341
215, 855, 760, 374
386, 120, 396, 245
251, 341, 857, 897
100, 122, 796, 178
699, 878, 862, 851
541, 342, 874, 724
232, 692, 982, 196
303, 219, 22, 53
200, 870, 794, 811
290, 784, 139, 382
165, 903, 444, 687
256, 686, 959, 95
375, 476, 87, 344
277, 728, 30, 272
493, 594, 983, 791
652, 65, 984, 635
243, 729, 265, 782
295, 995, 364, 151
161, 173, 820, 657
246, 600, 843, 311
407, 593, 882, 972
357, 272, 436, 58
596, 865, 108, 788
209, 348, 899, 167
812, 546, 998, 66
690, 437, 865, 144
872, 67, 360, 597
551, 31, 981, 309
490, 537, 845, 998
675, 586, 833, 362
256, 281, 429, 226
924, 549, 664, 848
138, 419, 797, 290
161, 100, 535, 581
0, 570, 617, 517
640, 205, 947, 785
858, 53, 459, 378
807, 162, 302, 670
554, 575, 568, 467
476, 532, 433, 665
525, 270, 840, 699
884, 834, 342, 304
310, 820, 65, 942
468, 443, 533, 104
634, 780, 196, 679
657, 942, 801, 245
176, 86, 381, 116
763, 302, 421, 90
426, 358, 697, 261
139, 139, 277, 643
174, 988, 444, 347
31, 689, 87, 534
140, 912, 394, 648
762, 883, 198, 334
310, 513, 903, 40
308, 82, 734, 284
688, 544, 889, 602
970, 313, 786, 173
751, 201, 927, 386
962, 81, 606, 75
155, 396, 744, 961
763, 492, 116, 282
378, 841, 560, 170
567, 448, 578, 486
884, 988, 210, 777
773, 95, 383, 393
503, 26, 35, 998
12, 685, 621, 179
473, 697, 402, 160
256, 370, 926, 622
588, 491, 93, 770
371, 225, 169, 188
777, 333, 313, 539
635, 422, 411, 414
206, 986, 541, 481
914, 373, 542, 250
754, 461, 901, 254
174, 516, 647, 209
790, 806, 823, 144
46, 716, 454, 502
954, 804, 516, 344
213, 971, 771, 14
62, 183, 399, 65
608, 469, 22, 232
678, 959, 907, 622
687, 659, 240, 245
335, 210, 363, 908
260, 653, 90, 785
327, 545, 546, 856
798, 333, 639, 338
386, 165, 470, 245
512, 120, 512, 920
626, 396, 445, 129
952, 825, 958, 816
410, 462, 754, 488
504, 426, 502, 895
670, 770, 331, 112
71, 711, 32, 357
839, 506, 351, 842
55, 713, 283, 713
218, 367, 856, 909
588, 837, 606, 893
299, 221, 771, 127
338, 760, 891, 694
66, 339, 828, 312
986, 675, 67, 878
264, 49, 266, 722
395, 416, 641, 75
987, 204, 635, 160
184, 679, 556, 810
289, 129, 743, 371
837, 894, 879, 531
126, 417, 653, 762
171, 553, 415, 30
255, 1000, 604, 46
935, 983, 708, 516
94, 157, 529, 966
429, 80, 979, 999
399, 818, 231, 391
692, 872, 350, 747
568, 26, 39, 447
810, 134, 704, 483
279, 651, 941, 499
809, 26, 548, 793
893, 625, 598, 402
806, 499, 24, 700
642, 480, 494, 559
315, 907, 4, 327
840, 442, 784, 683
899, 243, 912, 563
553, 186, 681, 62
206, 672, 608, 165
326, 285, 599, 82
204, 520, 608, 863
268, 530, 569, 12
886, 273, 957, 858
279, 103, 660, 29
870, 299, 221, 736
607, 418, 284, 836
351, 945, 259, 721
52, 241, 243, 636
222, 776, 96, 850
27, 175, 219, 246
935, 154, 146, 853
354, 435, 796, 363
842, 396, 93, 175
970, 782, 208, 224
778, 441, 121, 666
818, 583, 983, 36
597, 986, 848, 230
321, 782, 111, 115
829, 785, 408, 936
512, 731, 69, 840
149, 508, 904, 224
785, 637, 397, 510
517, 205, 513, 286
582, 434, 809, 273
255, 546, 354, 479
461, 122, 609, 602
168, 244, 422, 620
384, 22, 597, 26
325, 851, 104, 665
411, 334, 654, 791
437, 42, 269, 495
573, 102, 411, 259
832, 452, 467, 913
320, 378, 48, 693
803, 169, 319, 949
700, 891, 456, 878
252, 607, 139, 320
643, 273, 958, 814
538, 634, 113, 609
680, 640, 813, 500
567, 126, 680, 972
871, 334, 619, 359
757, 978, 488, 173
627, 230, 157, 504
807, 168, 447, 73
312, 154, 758, 977
754, 347, 371, 460
448, 993, 36, 835
891, 101, 284, 550
505, 785, 201, 223
337, 745, 27, 607
650, 990, 441, 767
214, 148, 679, 292
425, 378, 999, 328
535, 696, 745, 343
929, 510, 148, 490
675, 532, 792, 529
820, 140, 935, 69
684, 145, 520, 601
529, 735, 569, 51
218, 651, 127, 752
313, 295, 492, 642
630, 497, 492, 809
288, 435, 915, 681
887, 150, 240, 492
70, 809, 87, 538
363, 10, 236, 970
21, 490, 795, 364
793, 654, 558, 108
882, 318, 467, 854
273, 106, 446, 454
413, 614, 438, 102
379, 735, 61, 237
149, 951, 208, 704
565, 284, 822, 716
236, 742, 353, 855
984, 988, 274, 474
519, 248, 939, 432
897, 207, 430, 135
415, 614, 314, 124
448, 919, 638, 74
304, 473, 491, 962
51, 47, 135, 182
817, 328, 731, 682
830, 936, 818, 236
958, 234, 764, 761
344, 675, 190, 749
629, 719, 626, 84
323, 629, 636, 986
740, 791, 799, 787
555, 723, 220, 485
702, 539, 499, 967
585, 533, 585, 457
581, 372, 257, 974
974, 390, 648, 715
903, 649, 741, 635
519, 63, 740, 515
903, 89, 13, 341
764, 633, 518, 351
435, 794, 544, 313
989, 700, 583, 258
619, 951, 399, 24
940, 683, 721, 632
781, 624, 326, 234
853, 986, 803, 212
16, 705, 957, 954
550, 555, 901, 829
277, 429, 542, 184
855, 397, 128, 684
83, 342, 472, 653
653, 160, 694, 811
971, 434, 305, 447
999, 981, 642, 1000
723, 192, 802, 228
931, 152, 815, 74
290, 588, 295, 427
769, 421, 990, 59
917, 767, 456, 833
994, 885, 524, 480
552, 353, 708, 477
595, 342, 349, 360
525, 434, 14, 72
230, 641, 658, 834
787, 826, 631, 330
793, 385, 398, 13
503, 492, 587, 995
984, 748, 959, 200
49, 775, 295, 911
712, 672, 270, 728
397, 862, 923, 707
923, 532, 737, 982
610, 576, 322, 17
313, 296, 230, 64
221, 591, 274, 517
137, 773, 348, 111
977, 263, 570, 903
275, 790, 59, 215
811, 625, 550, 7
995, 509, 38, 339
4, 406, 206, 760
105, 632, 593, 105
689, 724, 947, 64
144, 715, 740, 241
182, 752, 880, 223
375, 575, 49, 341
834, 382, 813, 547
604, 989, 856, 933
814, 140, 265, 102
840, 625, 574, 326
177, 340, 593, 505
319, 541, 816, 649
488, 870, 559, 830
514, 254, 791, 701
787, 925, 254, 913
756, 12, 84, 1
633, 268, 430, 490
165, 380, 676, 676
26, 522, 13, 130
239, 552, 634, 685
891, 879, 958, 268
318, 418, 963, 959
247, 674, 819, 391
148, 150, 517, 913
437, 3, 824, 402
469, 868, 396, 24
951, 978, 279, 565
157, 796, 436, 102
375, 737, 421, 260
663, 774, 130, 487
437, 957, 587, 946
880, 9, 64, 136
922, 242, 296, 222
973, 206, 32, 162
616, 537, 61, 82
354, 196, 409, 99
813, 219, 905, 644
891, 620, 296, 447
511, 269, 428, 978
895, 314, 250, 358
790, 547, 396, 555
659, 906, 518, 584
566, 565, 210, 167
140, 226, 142, 154
617, 117, 716, 366
523, 140, 491, 571
810, 336, 588, 565
614, 421, 866, 761
174, 586, 687, 810
791, 565, 50, 277
607, 776, 900, 902
282, 396, 509, 589
869, 866, 491, 862
533, 922, 739, 657
655, 903, 759, 167
534, 53, 275, 827
928, 453, 585, 610
461, 521, 795, 54
583, 36, 10, 723
668, 175, 883, 756
898, 203, 202, 458
853, 397, 543, 840
398, 303, 342, 227
177, 445, 989, 179
993, 340, 134, 899
59, 967, 654, 694
422, 888, 795, 627
976, 50, 87, 324
599, 886, 482, 159
967, 482, 773, 545
509, 401, 927, 693
976, 173, 343, 661
856, 608, 877, 96
412, 527, 820, 540
402, 157, 743, 33
683, 63, 112, 141
313, 785, 549, 998
323, 275, 603, 88
106, 846, 35, 83
803, 633, 999, 252
485, 486, 106, 574
205, 269, 334, 476
972, 21, 706, 556
501, 652, 741, 459
480, 801, 792, 128
142, 127, 949, 964
801, 295, 203, 862
914, 641, 762, 482
586, 900, 138, 523
249, 886, 237, 957
732, 365, 681, 916
815, 820, 52, 887
935, 912, 483, 471
961, 648, 295, 908
602, 96, 499, 280
89, 26, 321, 696
594, 764, 572, 240
4, 223, 536, 17
534, 598, 976, 502
769, 323, 883, 394
23, 70, 883, 567
754, 664, 554, 443
400, 579, 609, 725
901, 981, 657, 256
331, 979, 711, 585
163, 849, 276, 493
358, 394, 586, 244
20, 336, 530, 971
530, 862, 11, 307
383, 563, 173, 957
190, 384, 585, 242
640, 582, 793, 811
348, 4, 349, 854
567, 147, 382, 171
165, 465, 201, 701
590, 152, 966, 407
808, 678, 933, 161
258, 82, 168, 83
713, 701, 764, 340
283, 839, 992, 357
773, 910, 316, 180
955, 586, 832, 512
141, 582, 344, 396
667, 850, 70, 200
783, 341, 167, 765
468, 272, 259, 765
777, 100, 301, 864
275, 785, 797, 834
927, 894, 435, 131
459, 830, 691, 549
471, 964, 104, 426
854, 866, 181, 219
491, 505, 609, 962
136, 583, 748, 705
922, 132, 252, 238
19, 972, 78, 570
935, 143, 479, 863
151, 831, 582, 861
212, 904, 791, 619
286, 827, 170, 36
914, 752, 272, 841
474, 603, 546, 36
583, 880, 104, 385
482, 810, 537, 752
991, 455, 237, 470
989, 117, 903, 824
497, 475, 44, 255
943, 420, 909, 852
451, 525, 652, 742
471, 688, 239, 480
205, 528, 948, 332
120, 828, 481, 36
490, 531, 847, 578
849, 113, 735, 854
26, 951, 716, 315
989, 560, 717, 143
950, 451, 998, 609
690, 215, 885, 276
788, 435, 725, 57
13, 34, 156, 47
939, 490, 357, 859
991, 681, 945, 441
488, 456, 591, 637
779, 812, 544, 228
80, 480, 534, 34
469, 970, 279, 357
625, 769, 18, 969
464, 455, 519, 298
519, 746, 455, 659
954, 345, 529, 789
838, 621, 73, 724
862, 649, 769, 328
833, 73, 120, 975
967, 954, 39, 466
328, 870, 764, 854
395, 326, 697, 619
375, 820, 396, 225
899, 201, 922, 950
143, 213, 473, 324
929, 145, 787, 368
168, 748, 253, 289
213, 473, 772, 324
223, 757, 356, 41
23, 736, 1000, 80
58, 291, 872, 429
860, 185, 536, 246
676, 365, 954, 460
278, 468, 76, 806
166, 120, 835, 457
83, 99, 725, 63
337, 828, 549, 799
296, 197, 449, 391
881, 78, 633, 631
452, 348, 643, 244
569, 459, 176, 272
134, 97, 569, 185
596, 184, 548, 987
698, 201, 291, 218
893, 802, 768, 920
53, 234, 844, 403
562, 846, 542, 510
777, 760, 887, 897
221, 132, 385, 630
349, 886, 154, 330
591, 187, 652, 537
15, 131, 868, 401
35, 944, 439, 427
872, 515, 382, 929
45, 343, 91, 720
718, 284, 355, 143
342, 512, 322, 933
645, 769, 894, 721
996, 357, 370, 361
274, 425, 670, 216
103, 51, 649, 631
2, 617, 779, 620
789, 324, 396, 26
578, 133, 866, 1000
705, 515, 387, 293
286, 214, 274, 893
433, 310, 639, 728
828, 473, 179, 921
778, 358, 991, 157
949, 284, 264, 251
632, 9, 324, 288
813, 212, 633, 401
465, 111, 674, 241
93, 708, 145, 823
91, 651, 56, 248
230, 899, 336, 663
936, 881, 724, 217
481, 618, 61, 593
480, 774, 943, 874
580, 200, 795, 715
622, 892, 331, 785
242, 521, 463, 647
160, 460, 386, 367
236, 615, 473, 301
61, 934, 192, 848
978, 764, 997, 30
424, 905, 138, 344
743, 434, 277, 625
529, 332, 830, 999
228, 39, 157, 198
193, 986, 308, 403
405, 365, 434, 616
716, 876, 915, 559
150, 47, 891, 614
336, 188, 577, 701
787, 569, 572, 400
514, 677, 458, 62
140, 704, 349, 508
526, 883, 600, 904
110, 145, 484, 338
748, 543, 178, 107
944, 486, 263, 901
