USER_ID,FIRST_NAME,LAST_NAME,BEGIN_BALANCE,END_BALANCE
000000,Laurel,Masser,$618670.00,$618351.0
000001,Myrle,Devaux,$601781.00,$601462.0
000002,Talisha,Kasa,$619768.00,$619480.0
000003,Allie,Mavropoulos,$213654.00,$213349.0
000004,Angelo,Rendina,$104040.00,$103781.0
000005,Dorinda,Wallick,$585138.00,$584876.0
000006,Samantha,Turko,$171039.00,$170708.0
000007,Olevia,Fouraker,$410991.00,$410703.0
000008,Eartha,Bonnoitt,$662263.00,$661908.0
000009,Latosha,Adley,$304714.00,$304441.0
000010,Nancy,Draine,$579237.00,$578910.0
000011,Lyndon,Fedd,$781962.00,$781708.0
000012,Shaniqua,Akley,$268255.00,$267914.0
000013,Alisia,Tamm,$787298.00,$787003.0
000014,Olga,Reinhold,$596759.00,$596452.0
000015,Celsa,Gettis,$564802.00,$564463.0
000016,Anette,Jongeling,$382069.00,$381767.0
000017,Mao,Angileri,$551506.00,$551253.0
000018,Cecelia,Tarbox,$297281.00,$296979.0
000019,Antonio,Kohnz,$155324.00,$155059.0
000020,Ivory,Baves,$540524.00,$540198.0
000021,Amina,Hafer,$296739.00,$296430.0
000022,Akilah,Antoniuk,$887764.00,$887438.0
000023,Hector,Quiver,$123709.00,$123394.0
000024,Lauren,Benafield,$692118.00,$691852.0
000025,Felix,Quinlin,$603752.00,$603492.0
000026,Shona,Don,$308025.00,$307754.0
000027,Rosalba,Bojko,$394406.00,$394044.0
000028,Yoko,Schroepfer,$547385.00,$547050.0
000029,Elouise,Arechiga,$485199.00,$484921.0
000030,Walton,Heiney,$836842.00,$836604.0
000031,Jimmy,Whitmarsh,$479209.00,$478903.0
000032,Tess,Storz,$362887.00,$362587.0
000033,Jesusa,Stayrook,$174039.00,$173739.0
000034,Kandi,Croker,$363539.00,$363229.0
000035,Stuart,Deyon,$189439.00,$189164.0
000036,Catherina,Farinas,$815901.00,$815603.0
000037,Brittani,Rouillier,$835165.00,$834851.0
000038,Consuela,Guidry,$587469.00,$587195.0
000039,Dwayne,Polanco,$233223.00,$232877.0
000040,Signe,Stimage,$526070.00,$525796.0
000041,Jesusa,Naufzinger,$437001.00,$436726.0
000042,Vernice,Minzenberger,$792936.00,$792642.0
000043,Etta,Ferrel,$643089.00,$642814.0
000044,Lenora,Fadri,$438303.00,$437961.0
000045,Jen,Gorczynski,$544377.00,$544131.0
000046,Ligia,Garich,$271514.00,$271256.0
000047,Titus,Monagan,$485345.00,$484976.0
000048,Katy,Gaymes,$793157.00,$792859.0
000049,Alayna,Demuzio,$338410.00,$338102.0
000050,Elidia,Kuprewicz,$211473.00,$211148.0
000051,Hannah,Stathopoulos,$651037.00,$650742.0
000052,Sonja,Beath,$706157.00,$705924.0
000053,Janae,Misnick,$765915.00,$765645.0
000054,Lena,Delbosque,$665539.00,$665229.0
000055,Hsiu,Hellyer,$244483.00,$244137.0
000056,Jesse,Emziah,$390714.00,$390447.0
000057,Luvenia,Schwaner,$618902.00,$618602.0
000058,Kiana,Nucci,$640969.00,$640638.0
000059,Willia,Gesselli,$507861.00,$507502.0
000060,Benita,Strimling,$741661.00,$741378.0
000061,Jeffry,Castellano,$395526.00,$395199.0
000062,Maudie,Bokor,$755237.00,$754947.0
000063,Sheena,Perciful,$580650.00,$580365.0
000064,Elmira,Collette,$716464.00,$716130.0
000065,Lala,Marmolejo,$298981.00,$298657.0
000066,Porter,Urankar,$611806.00,$611581.0
000067,Dolores,Kenny,$326333.00,$326035.0
000068,Reanna,Polk,$871280.00,$870942.0
000069,Roslyn,Bassford,$394718.00,$394406.0
000070,Angie,Slackman,$370518.00,$370271.0
000071,Digna,Dayne,$188735.00,$188400.0
000072,Layne,Cunnigham,$274181.00,$273886.0
000073,Delmy,Egvirre,$782660.00,$782353.0
000074,Louann,Nakaoka,$135885.00,$135549.0
000075,Roselia,Menchaca,$715594.00,$715280.0
000076,Ned,Whitecotton,$563327.00,$563038.0
000077,Laraine,Nardecchia,$375578.00,$375223.0
000078,Nadene,Leakes,$244684.00,$244391.0
000079,Tangela,Makinster,$297510.00,$297172.0
000080,Alysia,Charriez,$318373.00,$318079.0
000081,Micki,Koester,$567953.00,$567674.0
000082,Lorrine,Langhans,$362664.00,$362335.0
000083,Miguelina,Leatherman,$752434.00,$752049.0
000084,Lemuel,Gargan,$243515.00,$243205.0
000085,Gracia,Ruthven,$345174.00,$344845.0
000086,Sari,Puga,$777120.00,$776844.0
000087,Tam,Neblett,$196821.00,$196510.0
000088,Mark,Hennagin,$391801.00,$391512.0
000089,Lanell,Macauley,$410431.00,$410110.0
000090,Julianna,Savastano,$651852.00,$651525.0
000091,Jewell,Goldthorpe,$319548.00,$319295.0
000092,Apryl,Ligget,$728167.00,$727874.0
000093,Tamesha,Porrazzo,$771631.00,$771364.0
000094,Laci,Neel,$884795.00,$884465.0
000095,Cecilia,Castongvay,$858326.00,$858041.0
000096,Jerilyn,Bucklew,$413547.00,$413215.0
000097,Jacki,Rasul,$441634.00,$441330.0
000098,Gil,Haworth,$789879.00,$789601.0
000099,Lovetta,Eychaner,$569965.00,$569709.0
