NAME, INTELLIGENCE, STRENGTH, SPEED, DURABILITY, POWER, COMBAT
A-Bomb,38,100,17,80,17,64
Abe Sapien,88,14,35,42,35,85
Abin Sur,50,90,53,64,84,65
Abomination,63,80,53,90,55,95
Abraxas,88,100,83,99,100,56
Absorbing Man,38,80,25,100,100,64
Adam Monroe,63,10,12,100,71,64
Adam Strange
Agent 13
Agent Bob,10,8,13,5,5,20
Agent Zero,75,28,38,80,72,95
Air-Walker,50,85,100,85,100,40
Alan Scott,63,80,23,90,98,32
Alex Mercer,50,80,42,90,100,50
Alex Woolsly
Alfred Pennyworth,63,10,17,10,7,55
Allan Quatermain
Amazo,75,100,100,100,100,100
Ammo
Ando Masahashi
Angel,63,13,46,64,17,42
Angel Salvadore,38,10,28,28,46,60
Angela
Animal Man,56,48,47,85,73,80
Annihilus,75,80,47,56,59,64
Ant-Man,100,10,23,28,32,32
Ant-Man II,63,10,23,28,32,28
Anti-Monitor,88,90,38,90,100,90
Anti-Spawn
Anti-Venom,75,60,65,90,85,84
Apocalypse,100,100,33,100,100,60
Aquababy,10,16,12,14,37,14
Aqualad,63,44,42,75,76,60
Aquaman,63,80,50,80,65,80
Arachne,50,48,50,70,60,70
Archangel,63,13,58,64,28,42
Arclight,38,63,23,42,52,70
Ares,75,82,35,80,62,101
Ariel,50,10,12,14,72,28
Armor,50,63,12,80,55,54
Arsenal
Astro Boy
Atlas,50,80,23,99,69,42
Atom
Atom Girl,38,10,23,28,38,42
Atom I
Atom II
Atom III
Atom IV
Aurora,50,15,83,56,69,56
Azazel,50,11,47,95,87,80
Azrael,63,18,17,20,35,80
Aztar
